[
  {
    "Name": "http.request",
    "Args": {
      "URL": "http://www.imdb.com/name/nm3053338/"
    }
  },
  {
    "Name": "html.extract",
    "Args": {
      "Selectors": {
        "Title": "//h1/span/text()",
        "Image": "//div[@class='image']/a/img/@src",
        "Description": "//div[@itemprop='description']/text()"
      }
    }
  }
]
